9 Chaining operations
…
# Python equivalent of `ggplot2`
from plotnine import *

surveys = pd.read_csv("data/surveys.csv")

9.3 Pipes

So far, we’ve used single operations when we were manipulating our data. For example, we can select columns with:

R
Python

select(surveys, record_id, hindfoot_length)

# A tibble: 35,549 × 2
   record_id hindfoot_length
       <dbl>           <dbl>
 1         1              32
 2         2              33
 3         3              37
 4         4              36
 5         5              35
 6         6              14
 7         7              NA
 8         8              37
 9         9              34
10        10              20
# ℹ 35,539 more rows

Let’s say we wanted combine that with creating a new column, for example hindfoot length in centimeters.

We would have to do the following:

# grab the relevant columns and store in a new object
subset_surveys <- select(surveys, record_id, hindfoot_length)

# create the new column
mutate(subset_surveys, hindfoot_length_cm = hindfoot_length / 10)

# A tibble: 35,549 × 3
   record_id hindfoot_length hindfoot_length_cm
       <dbl>           <dbl>              <dbl>
 1         1              32                3.2
 2         2              33                3.3
 3         3              37                3.7
 4         4              36                3.6
 5         5              35                3.5
 6         6              14                1.4
 7         7              NA               NA  
 8         8              37                3.7
 9         9              34                3.4
10        10              20                2  
# ℹ 35,539 more rows

We had to create a new object (here, called subset_surveys) to store the intermediate data we were interested in, and then continue with creating the new column.

This clutters up your computer’s memory rather quickly when dealing with lots of data. A much better way is that we pipe one after the other. To do this, we start with the data and use a pipe symbol (|> or %>%) as follows:

surveys |> 
  select(record_id, hindfoot_length) |>
  mutate(hindfoot_length_cm = hindfoot_length / 10)

# A tibble: 35,549 × 3
   record_id hindfoot_length hindfoot_length_cm
       <dbl>           <dbl>              <dbl>
 1         1              32                3.2
 2         2              33                3.3
 3         3              37                3.7
 4         4              36                3.6
 5         5              35                3.5
 6         6              14                1.4
 7         7              NA               NA  
 8         8              37                3.7
 9         9              34                3.4
10        10              20                2  
# ℹ 35,539 more rows
…
