6 Working with tabular data
…
Next, we read in the file using the read_csv() function from tidyverse. Note that there is also a read.csv() function, but that one behaves slightly differently, so ensure you use the correct function name!

read_csv("data/surveys.csv")

Rows: 35549 Columns: 9
── Column specification ────────────────────────────────────────────────────────
Delimiter: ","
chr (2): species_id, sex
dbl (7): record_id, month, day, year, plot_id, hindfoot_length, weight

ℹ Use `spec()` to retrieve the full column specification for this data.
ℹ Specify the column types or set `show_col_types = FALSE` to quiet this message.

# A tibble: 35,549 × 9
   record_id month   day  year plot_id species_id sex   hindfoot_length weight
       <dbl> <dbl> <dbl> <dbl>   <dbl> <chr>      <chr>           <dbl>  <dbl>
 1         1     7    16  1977       2 NL         M                  32     NA
 2         2     7    16  1977       3 NL         M                  33     NA
 3         3     7    16  1977       2 DM         F                  37     NA
 4         4     7    16  1977       7 DM         M                  36     NA
 5         5     7    16  1977       3 DM         M                  35     NA
 6         6     7    16  1977       1 PF         M                  14     NA
 7         7     7    16  1977       2 PE         F                  NA     NA
 8         8     7    16  1977       1 DM         M                  37     NA
 9         9     7    16  1977       1 DM         F                  34     NA
10        10     7    16  1977       6 PF         F                  20     NA
# ℹ 35,539 more rows
…
6.5.2 Subsetting rows and columns

We can subset specific rows and columns using the square bracket [ ] notation. The way this is ordered is [rows, columns].

We can divide the way we extract the data into two methods: based on their label/name in the table (label-based subsetting) or based on their numerical index (index-based subsetting).

R
Python

Here, we are asking to return all the rows for the species_id column (its label). Note the comma before the "species_id" notation. The blank before the comma indicates that we’re selecting all the rows.

surveys[ , "species_id"]

# A tibble: 35,549 × 1
   species_id
   <chr>     
 1 NL        
 2 NL        
 3 DM        
 4 DM        
 5 DM        
 6 PF        
 7 PE        
 8 DM        
 9 DM        
10 PF        
# ℹ 35,539 more rows
…
