10 Manipulating rows
…
    Previous

    Next

  Ordering by weight in ascending order (click to toggle).

Let’s illustrate this with the surveys data set, arranging the data based on year.

R
Python

surveys |> 
  arrange(year)

# A tibble: 35,549 × 9
   record_id month   day  year plot_id species_id sex   hindfoot_length weight
       <dbl> <dbl> <dbl> <dbl>   <dbl> <chr>      <chr>           <dbl>  <dbl>
 1         1     7    16  1977       2 NL         M                  32     NA
 2         2     7    16  1977       3 NL         M                  33     NA
 3         3     7    16  1977       2 DM         F                  37     NA
 4         4     7    16  1977       7 DM         M                  36     NA
 5         5     7    16  1977       3 DM         M                  35     NA
 6         6     7    16  1977       1 PF         M                  14     NA
 7         7     7    16  1977       2 PE         F                  NA     NA
 8         8     7    16  1977       1 DM         M                  37     NA
 9         9     7    16  1977       1 DM         F                  34     NA
10        10     7    16  1977       6 PF         F                  20     NA
# ℹ 35,539 more rows

If we’d want to arrange the data in descending order (most recent to oldest), we would employ the desc() helper function:

surveys |> 
  arrange(desc(year))

# A tibble: 35,549 × 9
   record_id month   day  year plot_id species_id sex   hindfoot_length weight
       <dbl> <dbl> <dbl> <dbl>   <dbl> <chr>      <chr>           <dbl>  <dbl>
 1     33321     1    12  2002       1 DM         M                  38     44
 2     33322     1    12  2002       1 DO         M                  37     58
 3     33323     1    12  2002       1 PB         M                  28     45
 4     33324     1    12  2002       1 AB         <NA>               NA     NA
 5     33325     1    12  2002       1 DO         M                  35     29
 6     33326     1    12  2002       2 OT         F                  20     26
 7     33327     1    12  2002       2 OT         M                  20     24
 8     33328     1    12  2002       2 OT         F                  21     22
 9     33329     1    12  2002       2 DM         M                  37     47
10     33330     1    12  2002       2 DO         M                  35     51
# ℹ 35,539 more rows

We can read that bit of code as “take the surveys data set, send it to the arrange() function and ask it to arrange the data in descending order (using desc()) based on the year column”.

We can also combine this approach with multiple variables, for example arranging data based on descending year and (ascending) hindfoot length:

surveys |> 
  arrange(desc(year), hindfoot_length)

# A tibble: 35,549 × 9
   record_id month   day  year plot_id species_id sex   hindfoot_length weight
       <dbl> <dbl> <dbl> <dbl>   <dbl> <chr>      <chr>           <dbl>  <dbl>
 1     33647     3    14  2002       3 PF         M                   9      8
 2     35301    12     8  2002       4 PF         M                  13      6
 3     35506    12    31  2002       6 PF         M                  13      8
 4     34281     6    15  2002      23 RM         F                  14      9
 5     34663     7    14  2002      16 RM         M                  14      7
 6     35101    11    10  2002       9 PF         M                  14      7
 7     35487    12    29  2002      23 RO         F                  14     13
 8     33429     2     9  2002       3 PF         M                  15      8
 9     33535     2    10  2002      13 PF         F                  15      7
10     33556     2    10  2002       5 RO         M                  15      9
# ℹ 35,539 more rows
…
[35549 rows x 9 columns]

10.3.2 Finding unique values

Sometimes it is useful to retain rows with unique combinations of some of our variables (i.e. remove any duplicated rows).

R
Python

This can be done with the distinct() function.

surveys |> 
  distinct(species_id, year)

# A tibble: 535 × 2
   species_id  year
   <chr>      <dbl>
 1 NL          1977
 2 DM          1977
 3 PF          1977
 4 PE          1977
 5 DS          1977
 6 PP          1977
 7 SH          1977
 8 OT          1977
 9 DO          1977
10 OX          1977
# ℹ 525 more rows
…
Figure 10.1: The logic behind filtering: for each row the condition is checked (here: hindfoot_length > 31). If the outcome is TRUE then the row is returned.

We could then do this as follows:

R
Python

surveys |> 
  filter(hindfoot_length > 31)

# A tibble: 15,729 × 9
   record_id month   day  year plot_id species_id sex   hindfoot_length weight
       <dbl> <dbl> <dbl> <dbl>   <dbl> <chr>      <chr>           <dbl>  <dbl>
 1         1     7    16  1977       2 NL         M                  32     NA
 2         2     7    16  1977       3 NL         M                  33     NA
 3         3     7    16  1977       2 DM         F                  37     NA
 4         4     7    16  1977       7 DM         M                  36     NA
 5         5     7    16  1977       3 DM         M                  35     NA
 6         8     7    16  1977       1 DM         M                  37     NA
 7         9     7    16  1977       1 DM         F                  34     NA
 8        11     7    16  1977       5 DS         F                  53     NA
 9        12     7    16  1977       7 DM         M                  38     NA
10        13     7    16  1977       3 DM         M                  35     NA
# ℹ 15,719 more rows
…
10.3.4 Missing data revisited

It’s important to carefully consider how to deal with missing data, as we have previously seen. It’s easy enough to filter out all rows that contain missing data, however this is rarely the best course of action, because you might accidentally throw out useful data in columns that you’ll need later.

Furthermore, it’s often a good idea to see if there is any structure in your missing data. Maybe certain variables are consistently absent, which could tell you something about your data.

R
Python

We could filter out all the missing weight values as follows:

surveys |> 
  filter(!is.na(weight))

# A tibble: 32,283 × 9
   record_id month   day  year plot_id species_id sex   hindfoot_length weight
       <dbl> <dbl> <dbl> <dbl>   <dbl> <chr>      <chr>           <dbl>  <dbl>
 1        63     8    19  1977       3 DM         M                  35     40
 2        64     8    19  1977       7 DM         M                  37     48
 3        65     8    19  1977       4 DM         F                  34     29
 4        66     8    19  1977       4 DM         F                  35     46
 5        67     8    19  1977       7 DM         M                  35     36
 6        68     8    19  1977       8 DO         F                  32     52
 7        69     8    19  1977       2 PF         M                  15      8
 8        70     8    19  1977       3 OX         F                  21     22
 9        71     8    19  1977       7 DM         F                  36     35
10        74     8    19  1977       8 PF         M                  12      7
# ℹ 32,273 more rows
…
[32283 rows x 9 columns]

R
Python

We can combine this for multiple columns:

surveys |> 
  filter(!is.na(weight) & !is.na(hindfoot_length))

# A tibble: 30,738 × 9
   record_id month   day  year plot_id species_id sex   hindfoot_length weight
       <dbl> <dbl> <dbl> <dbl>   <dbl> <chr>      <chr>           <dbl>  <dbl>
 1        63     8    19  1977       3 DM         M                  35     40
 2        64     8    19  1977       7 DM         M                  37     48
 3        65     8    19  1977       4 DM         F                  34     29
 4        66     8    19  1977       4 DM         F                  35     46
 5        67     8    19  1977       7 DM         M                  35     36
 6        68     8    19  1977       8 DO         F                  32     52
 7        69     8    19  1977       2 PF         M                  15      8
 8        70     8    19  1977       3 OX         F                  21     22
 9        71     8    19  1977       7 DM         F                  36     35
10        74     8    19  1977       8 PF         M                  12      7
# ℹ 30,728 more rows
…
[30738 rows x 9 columns]

We can also combine that with other filters.

R
Python

surveys |> 
  filter(!is.na(weight) & !is.na(hindfoot_length)) |> 
  filter(hindfoot_length > 40)

# A tibble: 2,045 × 9
   record_id month   day  year plot_id species_id sex   hindfoot_length weight
       <dbl> <dbl> <dbl> <dbl>   <dbl> <chr>      <chr>           <dbl>  <dbl>
 1       357    11    12  1977       9 DS         F                  50    117
 2       362    11    12  1977       1 DS         F                  51    121
 3       367    11    12  1977      20 DS         M                  51    115
 4       377    11    12  1977       9 DS         F                  48    120
 5       381    11    13  1977      17 DS         F                  48    118
 6       383    11    13  1977      11 DS         F                  52    126
 7       385    11    13  1977      17 DS         M                  50    132
 8       392    11    13  1977      11 DS         F                  53    122
 9       394    11    13  1977       4 DS         F                  48    107
10       398    11    13  1977       4 DS         F                  50    115
# ℹ 2,035 more rows
…
1. Bacterial and non-ICU

To get the data we want, we need to filter for rows where:

infection_type contains the text "bacterial"

icu_admission is equal to TRUE (R) / True (Python)

R
Python

infections |> 
  filter(infection_type == "bacterial" & icu_admission == FALSE)

# A tibble: 212 × 11
   patient_id hospital   quarter infection_type vaccination_status age_group
   <chr>      <chr>      <chr>   <chr>          <chr>              <chr>    
 1 ID_0012    hospital_3 Q3      bacterial      unvaccinated       < 18     
 2 ID_0013    hospital_3 Q2      bacterial      vaccinated         18 - 64  
 3 ID_0016    hospital_1 Q2      bacterial      unknown            < 18     
 4 ID_0018    hospital_5 Q1      bacterial      vaccinated         18 - 64  
 5 ID_0021    hospital_2 Q1      bacterial      vaccinated         65+      
 6 ID_0022    hospital_1 Q1      bacterial      vaccinated         65+      
 7 ID_0024    hospital_4 <NA>    bacterial      <NA>               18 - 64  
 8 ID_0027    hospital_5 Q3      bacterial      unknown            <NA>     
 9 ID_0028    hospital_4 Q3      bacterial      unvaccinated       18 - 64  
10 ID_0039    hospital_1 Q1      bacterial      unknown            < 18     
# ℹ 202 more rows
# ℹ 5 more variables: icu_admission <lgl>, symptoms_count <dbl>,
#   systolic_pressure <dbl>, body_temperature <dbl>, crp_level <dbl>
…
age_group values of "65+" (string/text)

crp_level > 10 and crp_level < 15

crp_level > 50 and crp_level < 60

R
Python

infections |> 
  filter(age_group == "65+") |> 
  filter(crp_level > 10 & crp_level < 15 |
           crp_level > 50 & crp_level < 60)

# A tibble: 91 × 11
   patient_id hospital   quarter infection_type vaccination_status age_group
   <chr>      <chr>      <chr>   <chr>          <chr>              <chr>    
 1 ID_0001    hospital_3 Q2      none           <NA>               65+      
 2 ID_0005    hospital_3 Q2      fungal         vaccinated         65+      
 3 ID_0009    hospital_2 Q1      viral          <NA>               65+      
 4 ID_0014    hospital_1 Q2      none           unknown            65+      
 5 ID_0025    hospital_1 Q2      viral          vaccinated         65+      
 6 ID_0035    hospital_4 Q3      bacterial      unknown            65+      
 7 ID_0052    hospital_2 Q2      bacterial      unvaccinated       65+      
 8 ID_0063    hospital_3 Q3      none           unknown            65+      
 9 ID_0066    hospital_1 Q2      none           unknown            65+      
10 ID_0070    hospital_1 Q3      viral          vaccinated         65+      
# ℹ 81 more rows
# ℹ 5 more variables: icu_admission <lgl>, symptoms_count <dbl>,
#   systolic_pressure <dbl>, body_temperature <dbl>, crp_level <dbl>
…
