11 Grouped operations
…
surveys.query("year == 1982").shape[0]

1978

11.5.2 Counting by group

Counting really comes into its own when we’re combining this with some grouping. For example, we might be interested in the number of observations for each year.

R
Python

surveys |> 
  count(year)

# A tibble: 26 × 2
    year     n
   <dbl> <int>
 1  1977   503
 2  1978  1048
 3  1979   719
 4  1980  1415
 5  1981  1472
 6  1982  1978
 7  1983  1673
 8  1984   981
 9  1985  1438
10  1986   942
# ℹ 16 more rows
…
11.6 Grouped operations

11.6.1 Grouped filters

Sometimes it can be really handy to filter data, by group. In our surveys data, for example, you might be interested to find out what the minimum weight value is for each year. We can do that as follows:

R
Python

surveys |> 
  group_by(year) |> 
  filter(weight == min(weight, na.rm = TRUE)) |> 
  ungroup()

# A tibble: 94 × 9
   record_id month   day  year plot_id species_id sex   hindfoot_length weight
       <dbl> <dbl> <dbl> <dbl>   <dbl> <chr>      <chr>           <dbl>  <dbl>
 1       218     9    13  1977       1 PF         M                  13      4
 2      1161     8     5  1978       6 PF         F                  16      6
 3      1230     9     3  1978      19 PF         M                  16      6
 4      1265     9     4  1978      15 PF         F                  16      6
 5      1282     9     4  1978       4 PF         F                  16      6
 6      1343    10     7  1978      11 PF         F                  15      6
 7      1351    10     8  1978       2 PF         M                  15      6
 8      1380    10     8  1978       3 PF         F                  16      6
 9      1400    11     4  1978      19 PF         M                  15      6
10      1427    11     4  1978      21 PF         F                  15      6
# ℹ 84 more rows

You can see that this outputs the minimum value, but if there are multiple entries for each year (such as in 1978), multiple rows returned. If we only wanted to get a single row per minimum value, per year, then we can use slice(1). This slices the first row of each group:

surveys |> 
  group_by(year) |> 
  filter(weight == min(weight, na.rm = TRUE)) |> 
  slice(1) |> 
  ungroup()

# A tibble: 26 × 9
   record_id month   day  year plot_id species_id sex   hindfoot_length weight
       <dbl> <dbl> <dbl> <dbl>   <dbl> <chr>      <chr>           <dbl>  <dbl>
 1       218     9    13  1977       1 PF         M                  13      4
 2      1161     8     5  1978       6 PF         F                  16      6
 3      1923     7    25  1979      18 PF         F                  NA      6
 4      2506     2    25  1980       3 PF         F                  15      5
 5      4052     4     5  1981       3 PF         F                  15      4
 6      5346     2    22  1982      21 PF         F                  14      4
 7      8736    12     8  1983      19 RM         M                  17      4
 8      8809     2     4  1984      16 RM         F                  14      7
 9      9790     1    19  1985      16 RM         F                  16      4
10     11299     3     9  1986       3 RM         F                  16      7
# ℹ 16 more rows
…
We’re also interested in the percentage of female observations out of the total number of observations where sex was recorded.

We have the following number of female / male observations:

R
Python

surveys |> 
  group_by(year) |> 
  summarise(n_obs_f = sum(sex == "F", na.rm = TRUE),
            n_obs_m = sum(sex == "M", na.rm = TRUE)) |> 
  ungroup()

# A tibble: 26 × 3
    year n_obs_f n_obs_m
   <dbl>   <int>   <int>
 1  1977     204     214
 2  1978     503     433
 3  1979     327     324
 4  1980     605     727
 5  1981     631     745
 6  1982     823    1027
 7  1983     771     797
 8  1984     445     443
 9  1985     636     716
10  1986     414     455
# ℹ 16 more rows

Now, let’s say we’d be interested in the percentage of female observations out of the total of observations where it was scored. We’d have to add a new column. Adding new columns is, as we’ve seen before, a job for mutate().

surveys |> 
  group_by(year) |> 
  summarise(n_obs_f = sum(sex == "F", na.rm = TRUE),
            n_obs_m = sum(sex == "M", na.rm = TRUE)) |> 
  ungroup() |> 
  mutate(female_pct = n_obs_f / (n_obs_f + n_obs_m) * 100)

# A tibble: 26 × 4
    year n_obs_f n_obs_m female_pct
   <dbl>   <int>   <int>      <dbl>
 1  1977     204     214       48.8
 2  1978     503     433       53.7
 3  1979     327     324       50.2
 4  1980     605     727       45.4
 5  1981     631     745       45.9
 6  1982     823    1027       44.5
 7  1983     771     797       49.2
 8  1984     445     443       50.1
 9  1985     636     716       47.0
10  1986     414     455       47.6
# ℹ 16 more rows
…
Let’s illustrate this with an example. We’ll take out any missing values, to simplify things.

obs_count <- surveys |> 
  drop_na() |> 
  group_by(sex, year) |> 
  summarise(n_obs = n())

`summarise()` has grouped output by 'sex'. You can override using the `.groups`
argument.

obs_count

# A tibble: 52 × 3
# Groups:   sex [2]
   sex    year n_obs
   <chr> <dbl> <int>
 1 F      1977   123
 2 F      1978   430
 3 F      1979   297
 4 F      1980   442
 5 F      1981   482
 6 F      1982   672
 7 F      1983   758
 8 F      1984   436
 9 F      1985   624
10 F      1986   400
# ℹ 42 more rows
…
