8 Manipulating columns
…
8.3.1 Selecting individual columns

Let’s say we wanted to select only the record_id and year columns. We’ve briefly done this when we looked at subsetting rows and columns.

R
Python

However, there is an alternative way of doing this using the dplyr package - which is part of tidyverse.

We can use the select() function:

select(surveys, record_id, year)

# A tibble: 35,549 × 2
   record_id  year
       <dbl> <dbl>
 1         1  1977
 2         2  1977
 3         3  1977
 4         4  1977
 5         5  1977
 6         6  1977
 7         7  1977
 8         8  1977
 9         9  1977
10        10  1977
# ℹ 35,539 more rows
…
[35549 rows x 2 columns]

8.3.2 Selecting with helper functions

R
Python

The select() function becomes particularly useful when we combine it with other helper functions. For example, this code will select all the columns where the column name contains the string (text) "_id":

# returns all columns where the column name contains the text "_id"
select(surveys, contains("_id"))

# A tibble: 35,549 × 3
   record_id plot_id species_id
       <dbl>   <dbl> <chr>     
 1         1       2 NL        
 2         2       3 NL        
 3         3       2 DM        
 4         4       7 DM        
 5         5       3 DM        
 6         6       1 PF        
 7         7       2 PE        
 8         8       1 DM        
 9         9       1 DM        
10        10       6 PF        
# ℹ 35,539 more rows

Another thing we often want to do is select columns by their data type. For example, if we wanted to select all numerical columns we could do this:

select(surveys, where(is.numeric))

# A tibble: 35,549 × 7
   record_id month   day  year plot_id hindfoot_length weight
       <dbl> <dbl> <dbl> <dbl>   <dbl>           <dbl>  <dbl>
 1         1     7    16  1977       2              32     NA
 2         2     7    16  1977       3              33     NA
 3         3     7    16  1977       2              37     NA
 4         4     7    16  1977       7              36     NA
 5         5     7    16  1977       3              35     NA
 6         6     7    16  1977       1              14     NA
 7         7     7    16  1977       2              NA     NA
 8         8     7    16  1977       1              37     NA
 9         9     7    16  1977       1              34     NA
10        10     7    16  1977       6              20     NA
# ℹ 35,539 more rows
…
[35549 rows x 7 columns]

8.3.3 Selecting a range of columns

Let’s say we’re interested in all the columns from record_id to year.

R
Python

In that case, we can use the : symbol.

# returns all columns between and including record_id and year
select(surveys, record_id:year)

# A tibble: 35,549 × 4
   record_id month   day  year
       <dbl> <dbl> <dbl> <dbl>
 1         1     7    16  1977
 2         2     7    16  1977
 3         3     7    16  1977
 4         4     7    16  1977
 5         5     7    16  1977
 6         6     7    16  1977
 7         7     7    16  1977
 8         8     7    16  1977
 9         9     7    16  1977
10        10     7    16  1977
# ℹ 35,539 more rows

We can also combine this with the previous method:

# returns all columns between and including record_id and year
# and all columns where the column name contains the text "_id"
select(surveys, record_id:year, contains("_id"))

# A tibble: 35,549 × 6
   record_id month   day  year plot_id species_id
       <dbl> <dbl> <dbl> <dbl>   <dbl> <chr>     
 1         1     7    16  1977       2 NL        
 2         2     7    16  1977       3 NL        
 3         3     7    16  1977       2 DM        
 4         4     7    16  1977       7 DM        
 5         5     7    16  1977       3 DM        
 6         6     7    16  1977       1 PF        
 7         7     7    16  1977       2 PE        
 8         8     7    16  1977       1 DM        
 9         9     7    16  1977       1 DM        
10        10     7    16  1977       6 PF        
# ℹ 35,539 more rows
…
[35549 rows x 4 columns]

8.3.4 Unselecting columns

Lastly, we can also unselect columns. This can be useful when you want most columns, apart from some.

R
Python

To do this, we use the - symbol before the column name.

# returns all columns apart from record_id
select(surveys, -record_id)

# A tibble: 35,549 × 8
   month   day  year plot_id species_id sex   hindfoot_length weight
   <dbl> <dbl> <dbl>   <dbl> <chr>      <chr>           <dbl>  <dbl>
 1     7    16  1977       2 NL         M                  32     NA
 2     7    16  1977       3 NL         M                  33     NA
 3     7    16  1977       2 DM         F                  37     NA
 4     7    16  1977       7 DM         M                  36     NA
 5     7    16  1977       3 DM         M                  35     NA
 6     7    16  1977       1 PF         M                  14     NA
 7     7    16  1977       2 PE         F                  NA     NA
 8     7    16  1977       1 DM         M                  37     NA
 9     7    16  1977       1 DM         F                  34     NA
10     7    16  1977       6 PF         F                  20     NA
# ℹ 35,539 more rows
…
8.4 Renaming and reshuffling columns

8.4.1 Renaming columns

For example, we might want to change the weight column name to weight_g, to reflect that the values are in grams.

R
Python

We can use the rename() function to change a column name. We do this as follows:

rename(surveys, weight_g = weight)

# A tibble: 35,549 × 9
   record_id month   day  year plot_id species_id sex   hindfoot_length weight_g
       <dbl> <dbl> <dbl> <dbl>   <dbl> <chr>      <chr>           <dbl>    <dbl>
 1         1     7    16  1977       2 NL         M                  32       NA
 2         2     7    16  1977       3 NL         M                  33       NA
 3         3     7    16  1977       2 DM         F                  37       NA
 4         4     7    16  1977       7 DM         M                  36       NA
 5         5     7    16  1977       3 DM         M                  35       NA
 6         6     7    16  1977       1 PF         M                  14       NA
 7         7     7    16  1977       2 PE         F                  NA       NA
 8         8     7    16  1977       1 DM         M                  37       NA
 9         9     7    16  1977       1 DM         F                  34       NA
10        10     7    16  1977       6 PF         F                  20       NA
# ℹ 35,539 more rows
…
[35549 rows x 9 columns]

8.4.2 Reshuffling columns

It might be that you want to reorder/reshuffle a column. Here, the year column is our fourth variable. Let’s say we’d want to move this to the second position (after record_id).

R
Python

We can use the relocate() function to do this. The function has several arguments, starting with ., such as .before = or .after =. These allow you to specify where you want to reinsert the column.

relocate(surveys, year, .after = record_id)

# A tibble: 35,549 × 9
   record_id  year month   day plot_id species_id sex   hindfoot_length weight
       <dbl> <dbl> <dbl> <dbl>   <dbl> <chr>      <chr>           <dbl>  <dbl>
 1         1  1977     7    16       2 NL         M                  32     NA
 2         2  1977     7    16       3 NL         M                  33     NA
 3         3  1977     7    16       2 DM         F                  37     NA
 4         4  1977     7    16       7 DM         M                  36     NA
 5         5  1977     7    16       3 DM         M                  35     NA
 6         6  1977     7    16       1 PF         M                  14     NA
 7         7  1977     7    16       2 PE         F                  NA     NA
 8         8  1977     7    16       1 DM         M                  37     NA
 9         9  1977     7    16       1 DM         F                  34     NA
10        10  1977     7    16       6 PF         F                  20     NA
# ℹ 35,539 more rows
…
Figure 8.1: Creating a new column using data from an existing one.

Let’s illustrate this with an example on our surveys data set. Let’s say we wanted to get hindfoot_length in centimeters, instead of millimeters. We’d have to go through each row, take the hindfoot_length value and divide it by 10. We then need to store this output in a column called, for example, hindfoot_length_cm.

R
Python

We can use the mutate() function to create new columns:

mutate(surveys, hindfoot_length_cm = hindfoot_length / 10)

# A tibble: 35,549 × 10
   record_id month   day  year plot_id species_id sex   hindfoot_length weight
       <dbl> <dbl> <dbl> <dbl>   <dbl> <chr>      <chr>           <dbl>  <dbl>
 1         1     7    16  1977       2 NL         M                  32     NA
 2         2     7    16  1977       3 NL         M                  33     NA
 3         3     7    16  1977       2 DM         F                  37     NA
 4         4     7    16  1977       7 DM         M                  36     NA
 5         5     7    16  1977       3 DM         M                  35     NA
 6         6     7    16  1977       1 PF         M                  14     NA
 7         7     7    16  1977       2 PE         F                  NA     NA
 8         8     7    16  1977       1 DM         M                  37     NA
 9         9     7    16  1977       1 DM         F                  34     NA
10        10     7    16  1977       6 PF         F                  20     NA
# ℹ 35,539 more rows
# ℹ 1 more variable: hindfoot_length_cm <dbl>
…
Although it has created the column, we can’t quite see it because we have too many columns. So, let’s save the new column to the data set and then select the relevant columns.

R
Python

First, we update our data:

surveys <- mutate(surveys, hindfoot_length_cm = hindfoot_length / 10)

Next, we can select the columns.

select(surveys, record_id, hindfoot_length, hindfoot_length_cm)

# A tibble: 35,549 × 3
   record_id hindfoot_length hindfoot_length_cm
       <dbl>           <dbl>              <dbl>
 1         1              32                3.2
 2         2              33                3.3
 3         3              37                3.7
 4         4              36                3.6
 5         5              35                3.5
 6         6              14                1.4
 7         7              NA               NA  
 8         8              37                3.7
 9         9              34                3.4
10        10              20                2  
# ℹ 35,539 more rows
…
AnswerAnswer

We need to update the existing table, so we view the result.

R
Python

infections <- mutate(infections, body_temperature_f = round(body_temperature * (9/5) + 32))

Let’s check if the result is what we expected.

select(infections, body_temperature, body_temperature_f)

# A tibble: 1,400 × 2
   body_temperature body_temperature_f
              <dbl>              <dbl>
 1             37.8                100
 2             39.1                102
 3             38.5                101
 4             39.4                103
 5             36.9                 98
 6             36.8                 98
 7             39.4                103
 8             39.3                103
 9             39.6                103
10             39.1                102
# ℹ 1,390 more rows
…
