9 Chaining operations
…
select(surveys, record_id, hindfoot_length)

Let’s say we wanted combine that with creating a new column, for example hindfoot length in centimeters.

We would have to do the following:

# grab the relevant columns and store in a new object
subset_surveys <- select(surveys, record_id, hindfoot_length)

# create the new column
mutate(subset_surveys, hindfoot_length_cm = hindfoot_length / 10)

# A tibble: 35,549 × 3
   record_id hindfoot_length hindfoot_length_cm
       <dbl>           <dbl>              <dbl>
 1         1              32                3.2
 2         2              33                3.3
 3         3              37                3.7
 4         4              36                3.6
 5         5              35                3.5
 6         6              14                1.4
 7         7              NA               NA  
 8         8              37                3.7
 9         9              34                3.4
10        10              20                2  
# ℹ 35,539 more rows

We had to create a new object (here, called subset_surveys) to store the intermediate data we were interested in, and then continue with creating the new column.

This clutters up your computer’s memory rather quickly when dealing with lots of data. A much better way is that we pipe or chain one after the other. To do this, we start with the data and use a pipe symbol (|> or %>%) as follows:

surveys |> 
  select(record_id, hindfoot_length) |>
  mutate(hindfoot_length_cm = hindfoot_length / 10)

# A tibble: 35,549 × 3
   record_id hindfoot_length hindfoot_length_cm
       <dbl>           <dbl>              <dbl>
 1         1              32                3.2
 2         2              33                3.3
 3         3              37                3.7
 4         4              36                3.6
 5         5              35                3.5
 6         6              14                1.4
 7         7              NA               NA  
 8         8              37                3.7
 9         9              34                3.4
10        10              20                2  
# ℹ 35,539 more rows
…
parasites <- read_csv("data/parasites.csv")

parasites = pd.read_csv("data/parasites.csv")

Perform chaining operations:

R
Python

parasites |> 
  select(lake, fish_length) |> 
  rename(fish_length_cm = fish_length) |> 
  mutate(fish_length_in = fish_length_cm / 2.54)

# A tibble: 64 × 3
   lake  fish_length_cm fish_length_in
   <chr>          <dbl>          <dbl>
 1 C               21.1           8.31
 2 C               26.4          10.4 
 3 C               18.9           7.44
 4 B               27.2          10.7 
 5 C               29            11.4 
 6 B               24.2           9.53
 7 B               31.2          12.3 
 8 B               20.3           7.99
 9 C               27            10.6 
10 A               27            10.6 
# ℹ 54 more rows
…
In R there is the lubridate package, which allows us to manipulate dates efficiently. After installing it, make sure to load it.

we use lubridate::make_date() to create the date column

we use the lubridate::month() function to create the month label, using abbreviations

library(lubridate)

surveys |> 
  mutate(record_date = make_date(year, month, day)) |> 
  mutate(month_abbr = month(month, label = TRUE, abbr = TRUE)) |> 
  select(record_id, year, month, day, record_date, month_abbr)

# A tibble: 35,549 × 6
   record_id  year month   day record_date month_abbr
       <dbl> <dbl> <dbl> <dbl> <date>      <ord>     
 1         1  1977     7    16 1977-07-16  Jul       
 2         2  1977     7    16 1977-07-16  Jul       
 3         3  1977     7    16 1977-07-16  Jul       
 4         4  1977     7    16 1977-07-16  Jul       
 5         5  1977     7    16 1977-07-16  Jul       
 6         6  1977     7    16 1977-07-16  Jul       
 7         7  1977     7    16 1977-07-16  Jul       
 8         8  1977     7    16 1977-07-16  Jul       
 9         9  1977     7    16 1977-07-16  Jul       
10        10  1977     7    16 1977-07-16  Jul       
# ℹ 35,539 more rows
…
