13 Combining data
…
# A tibble: 5 × 2
  plot_id plot_type                
    <dbl> <chr>                    
1       1 Spectab exclosure        
2       2 Control                  
3       3 Long-term Krat Exclosure 
4       4 Rodent Exclosure         
5       5 Short-term Krat Exclosure

Now let’s look at our surveys data set. We know we have a plot_id column there, too. Let’s check how many times the different plot_id values occur in our data. For this, we can use the count() function:

surveys |> count(plot_id)

# A tibble: 24 × 2
   plot_id     n
     <dbl> <int>
 1       1  1995
 2       2  2194
 3       3  1828
 4       4  1969
 5       5  1194
 6       6  1582
 7       7   816
 8       8  1891
 9       9  1936
10      10   469
# ℹ 14 more rows
…
Figure 13.1: Left join: table b to a

This means that any plot_id that appears in surveys, but isn’t present in plot_types will be empty or missing for its plot_type value.

For an animated representation of the underlying principle of joining, have a look at the garrickadenbuie website.

R
Python

left_join(surveys, plot_types, by = "plot_id")

# A tibble: 35,549 × 10
   record_id month   day  year plot_id species_id sex   hindfoot_length weight
       <dbl> <dbl> <dbl> <dbl>   <dbl> <chr>      <chr>           <dbl>  <dbl>
 1         1     7    16  1977       2 NL         M                  32     NA
 2         2     7    16  1977       3 NL         M                  33     NA
 3         3     7    16  1977       2 DM         F                  37     NA
 4         4     7    16  1977       7 DM         M                  36     NA
 5         5     7    16  1977       3 DM         M                  35     NA
 6         6     7    16  1977       1 PF         M                  14     NA
 7         7     7    16  1977       2 PE         F                  NA     NA
 8         8     7    16  1977       1 DM         M                  37     NA
 9         9     7    16  1977       1 DM         F                  34     NA
10        10     7    16  1977       6 PF         F                  20     NA
# ℹ 35,539 more rows
# ℹ 1 more variable: plot_type <chr>
…
Figure 13.5: Right join: table a to b

This means that for all the rows where there isn’t a match for plot_id in the surveys data set, the rows are dropped.

R
Python

right_join(surveys, plot_types, by = "plot_id")

# A tibble: 9,180 × 10
   record_id month   day  year plot_id species_id sex   hindfoot_length weight
       <dbl> <dbl> <dbl> <dbl>   <dbl> <chr>      <chr>           <dbl>  <dbl>
 1         1     7    16  1977       2 NL         M                  32     NA
 2         2     7    16  1977       3 NL         M                  33     NA
 3         3     7    16  1977       2 DM         F                  37     NA
 4         5     7    16  1977       3 DM         M                  35     NA
 5         6     7    16  1977       1 PF         M                  14     NA
 6         7     7    16  1977       2 PE         F                  NA     NA
 7         8     7    16  1977       1 DM         M                  37     NA
 8         9     7    16  1977       1 DM         F                  34     NA
 9        11     7    16  1977       5 DS         F                  53     NA
10        13     7    16  1977       3 DM         M                  35     NA
# ℹ 9,170 more rows
# ℹ 1 more variable: plot_type <chr>
…
Figure 13.6: Inner join: retain values present in both tables

R
Python

inner_join(surveys, plot_types, by = "plot_id")

# A tibble: 9,180 × 10
   record_id month   day  year plot_id species_id sex   hindfoot_length weight
       <dbl> <dbl> <dbl> <dbl>   <dbl> <chr>      <chr>           <dbl>  <dbl>
 1         1     7    16  1977       2 NL         M                  32     NA
 2         2     7    16  1977       3 NL         M                  33     NA
 3         3     7    16  1977       2 DM         F                  37     NA
 4         5     7    16  1977       3 DM         M                  35     NA
 5         6     7    16  1977       1 PF         M                  14     NA
 6         7     7    16  1977       2 PE         F                  NA     NA
 7         8     7    16  1977       1 DM         M                  37     NA
 8         9     7    16  1977       1 DM         F                  34     NA
 9        11     7    16  1977       5 DS         F                  53     NA
10        13     7    16  1977       3 DM         M                  35     NA
# ℹ 9,170 more rows
# ℹ 1 more variable: plot_type <chr>
…
Figure 13.7: Full join: retain all values

R
Python

full_join(surveys, plot_types, by = "plot_id")

# A tibble: 35,549 × 10
   record_id month   day  year plot_id species_id sex   hindfoot_length weight
       <dbl> <dbl> <dbl> <dbl>   <dbl> <chr>      <chr>           <dbl>  <dbl>
 1         1     7    16  1977       2 NL         M                  32     NA
 2         2     7    16  1977       3 NL         M                  33     NA
 3         3     7    16  1977       2 DM         F                  37     NA
 4         4     7    16  1977       7 DM         M                  36     NA
 5         5     7    16  1977       3 DM         M                  35     NA
 6         6     7    16  1977       1 PF         M                  14     NA
 7         7     7    16  1977       2 PE         F                  NA     NA
 8         8     7    16  1977       1 DM         M                  37     NA
 9         9     7    16  1977       1 DM         F                  34     NA
10        10     7    16  1977       6 PF         F                  20     NA
# ℹ 35,539 more rows
# ℹ 1 more variable: plot_type <chr>
…
This again gives us our entire surveys data set, including the additional plot_type information where available. The reason why this is not different to the left join is because there are no rows in plot_types that do not have a match in surveys.

13.3.6 Filtering joins

There is one last set of joins we haven’t discussed yet: filtering joins. These can be really helpful if you’re comparing two tables and want to specifically extract the rows that are either present (semi-join) or absent (anti-join) in the other table.

R
Python

Semi-join:

semi_join(surveys, plot_types, by = "plot_id")

# A tibble: 9,180 × 9
   record_id month   day  year plot_id species_id sex   hindfoot_length weight
       <dbl> <dbl> <dbl> <dbl>   <dbl> <chr>      <chr>           <dbl>  <dbl>
 1         1     7    16  1977       2 NL         M                  32     NA
 2         2     7    16  1977       3 NL         M                  33     NA
 3         3     7    16  1977       2 DM         F                  37     NA
 4         5     7    16  1977       3 DM         M                  35     NA
 5         6     7    16  1977       1 PF         M                  14     NA
 6         7     7    16  1977       2 PE         F                  NA     NA
 7         8     7    16  1977       1 DM         M                  37     NA
 8         9     7    16  1977       1 DM         F                  34     NA
 9        11     7    16  1977       5 DS         F                  53     NA
10        13     7    16  1977       3 DM         M                  35     NA
# ℹ 9,170 more rows

Anti-join:

anti_join(surveys, plot_types, by = "plot_id")

# A tibble: 26,369 × 9
   record_id month   day  year plot_id species_id sex   hindfoot_length weight
       <dbl> <dbl> <dbl> <dbl>   <dbl> <chr>      <chr>           <dbl>  <dbl>
 1         4     7    16  1977       7 DM         M                  36     NA
 2        10     7    16  1977       6 PF         F                  20     NA
 3        12     7    16  1977       7 DM         M                  38     NA
 4        14     7    16  1977       8 DM         <NA>               NA     NA
 5        15     7    16  1977       6 DM         F                  36     NA
 6        20     7    17  1977      11 DS         F                  48     NA
 7        21     7    17  1977      14 DM         F                  34     NA
 8        22     7    17  1977      15 NL         F                  31     NA
 9        23     7    17  1977      13 DM         M                  36     NA
10        24     7    17  1977      13 SH         M                  21     NA
# ℹ 26,359 more rows
…
