12 Reshaping data
…
12.5 From wide to long

We can reshape our data from wide to long. This is more or less the inverse of what we did above.

R
Python

surveys_wide |> 
  pivot_longer(cols = -record_id,
               names_to = "year",
               values_to = "weight",
               names_prefix = "yr_")

# A tibble: 200 × 3
   record_id year  weight
       <dbl> <chr>  <dbl>
 1       166 2021    195.
 2       166 2022    190.
 3       166 2023    184.
 4       166 2024    182 
 5       228 2021    192.
 6       228 2022    189 
 7       228 2023    188 
 8       228 2024    179 
 9       337 2021    181.
10       337 2022    176.
# ℹ 190 more rows
…
