15 Live demo exercises
…
Or more than 1 column, by column name:

R
Python

infections[, c("patient_id", "systolic_pressure")]

# A tibble: 1,400 × 2
   patient_id systolic_pressure
   <chr>                  <dbl>
 1 ID_0001                  117
 2 ID_0002                  115
 3 ID_0003                  120
 4 ID_0004                  129
 5 ID_0005                  114
 6 ID_0006                  124
 7 ID_0007                  133
 8 ID_0008                  120
 9 ID_0009                  124
10 ID_0010                  127
# ℹ 1,390 more rows
…
colnames(infections)

 [1] "patient_id"         "hospital"           "quarter"           
 [4] "infection_type"     "vaccination_status" "age_group"         
 [7] "icu_admission"      "symptoms_count"     "systolic_pressure" 
[10] "body_temperature"   "crp_level"         

Let’s say we only wanted to select some of these.

R
Python

select(infections, patient_id, body_temperature)

# A tibble: 1,400 × 2
   patient_id body_temperature
   <chr>                 <dbl>
 1 ID_0001                37.8
 2 ID_0002                39.1
 3 ID_0003                38.5
 4 ID_0004                39.4
 5 ID_0005                36.9
 6 ID_0006                36.8
 7 ID_0007                39.4
 8 ID_0008                39.3
 9 ID_0009                39.6
10 ID_0010                39.1
# ℹ 1,390 more rows

Or select by data type:

R
Python

select(infections, where(is.numeric))

# A tibble: 1,400 × 4
   symptoms_count systolic_pressure body_temperature crp_level
            <dbl>             <dbl>            <dbl>     <dbl>
 1              1               117             37.8     12.0 
 2              6               115             39.1      8.11
 3              3               120             38.5      5.24
 4              7               129             39.4     41.7 
 5              7               114             36.9     10.5 
 6              5               124             36.8      6.57
 7             10               133             39.4     53.1 
 8             12               120             39.3     NA   
 9             13               124             39.6     50.3 
10              7               127             39.1     13.0 
# ℹ 1,390 more rows

Or based on a certain phrase within the column heading:

R
Python

select(infections, contains("_id"))

# A tibble: 1,400 × 1
   patient_id
   <chr>     
 1 ID_0001   
 2 ID_0002   
 3 ID_0003   
 4 ID_0004   
 5 ID_0005   
 6 ID_0006   
 7 ID_0007   
 8 ID_0008   
 9 ID_0009   
10 ID_0010   
# ℹ 1,390 more rows
…
use scale() when the unit or range is the issue (often when comparing across different variables with different units)

using both can also be helpful, where you log-transform first, then scale the data to use in modelling.

We can scale the data where, for each value, we subtract the mean and divide by the standard deviation.

R
Python

In R, we can use the scale() function to do this.

mutate(infections, crp_scaled = scale(crp_level))

# A tibble: 1,400 × 12
   patient_id hospital   quarter infection_type vaccination_status age_group
   <chr>      <chr>      <chr>   <chr>          <chr>              <chr>    
 1 ID_0001    hospital_3 Q2      none           <NA>               65+      
 2 ID_0002    hospital_3 Q2      viral          <NA>               18 - 64  
 3 ID_0003    hospital_2 Q2      none           unknown            65+      
 4 ID_0004    hospital_2 Q3      fungal         unvaccinated       < 18     
 5 ID_0005    hospital_3 Q2      fungal         vaccinated         65+      
 6 ID_0006    hospital_5 Q3      none           vaccinated         65+      
 7 ID_0007    hospital_4 Q1      fungal         unvaccinated       18 - 64  
 8 ID_0008    hospital_1 Q1      <NA>           unvaccinated       18 - 64  
 9 ID_0009    hospital_2 Q1      viral          <NA>               65+      
10 ID_0010    hospital_3 Q3      none           unvaccinated       <NA>     
# ℹ 1,390 more rows
# ℹ 6 more variables: icu_admission <lgl>, symptoms_count <dbl>,
#   systolic_pressure <dbl>, body_temperature <dbl>, crp_level <dbl>,
#   crp_scaled <dbl[,1]>
…
15.11 DA3: creating columns (conditional)

Sometimes we need to create new columns based on certain conditions. Let’s say we wanted to flag if patients not vaccinated and have been admitted to ICU we consider them as high risk.

We want to encode this in a column risk_factor, where we label them as "high". This would then allow us to add other values, such as "low" or "medium" at a later time.

R
Python

mutate(infections,
       risk_factor = ifelse(vaccination_status == "unvaccinated" & icu_admission == TRUE, "high", NA))

# A tibble: 1,400 × 12
   patient_id hospital   quarter infection_type vaccination_status age_group
   <chr>      <chr>      <chr>   <chr>          <chr>              <chr>    
 1 ID_0001    hospital_3 Q2      none           <NA>               65+      
 2 ID_0002    hospital_3 Q2      viral          <NA>               18 - 64  
 3 ID_0003    hospital_2 Q2      none           unknown            65+      
 4 ID_0004    hospital_2 Q3      fungal         unvaccinated       < 18     
 5 ID_0005    hospital_3 Q2      fungal         vaccinated         65+      
 6 ID_0006    hospital_5 Q3      none           vaccinated         65+      
 7 ID_0007    hospital_4 Q1      fungal         unvaccinated       18 - 64  
 8 ID_0008    hospital_1 Q1      <NA>           unvaccinated       18 - 64  
 9 ID_0009    hospital_2 Q1      viral          <NA>               65+      
10 ID_0010    hospital_3 Q3      none           unvaccinated       <NA>     
# ℹ 1,390 more rows
# ℹ 6 more variables: icu_admission <lgl>, symptoms_count <dbl>,
#   systolic_pressure <dbl>, body_temperature <dbl>, crp_level <dbl>,
#   risk_factor <chr>
…
15.12.3 Back to long format

We can revert back to a long format with the following:

R
Python

pivot_longer(infections_wide,
             cols = Q1:Q3,           # columns to pivot
             names_to = "quarter",   # column for headings
             values_to = "mean_crp") # column for values

# A tibble: 534 × 6
   hospital   infection_type vaccination_status age_group quarter mean_crp
   <chr>      <chr>          <chr>              <chr>     <chr>      <dbl>
 1 hospital_1 bacterial      unknown            65+       Q1         23.7 
 2 hospital_1 bacterial      unknown            65+       Q2         NA   
 3 hospital_1 bacterial      unknown            65+       Q3         26.8 
 4 hospital_1 bacterial      unknown            < 18      Q1         25.8 
 5 hospital_1 bacterial      unknown            < 18      Q2         54.5 
 6 hospital_1 bacterial      unknown            < 18      Q3         NA   
 7 hospital_1 bacterial      unvaccinated       18 - 64   Q1          8.35
 8 hospital_1 bacterial      unvaccinated       18 - 64   Q2         NA   
 9 hospital_1 bacterial      unvaccinated       18 - 64   Q3         NA   
10 hospital_1 bacterial      unvaccinated       65+       Q1         23.2 
# ℹ 524 more rows
…
